…
    ## New names:
    ## * `` -> ...15
    ## * `` -> ...16
    ## * `` -> ...17

``` r
trash_wheel_df
```

    ## # A tibble: 454 × 17
    ##    dumpster month  year date                weight_tons volume_cubic_yards
    ##    <chr>    <chr> <dbl> <dttm>                    <dbl>              <dbl>
    ##  1 1        May    2014 2014-05-16 00:00:00        4.31                 18
    ##  2 2        May    2014 2014-05-16 00:00:00        2.74                 13
    ##  3 3        May    2014 2014-05-16 00:00:00        3.45                 15
    ##  4 4        May    2014 2014-05-17 00:00:00        3.1                  15
    ##  5 5        May    2014 2014-05-17 00:00:00        4.06                 18
    ##  6 6        May    2014 2014-05-20 00:00:00        2.71                 13
    ##  7 7        May    2014 2014-05-21 00:00:00        1.91                  8
    ##  8 8        May    2014 2014-05-28 00:00:00        3.7                  16
    ##  9 9        June   2014 2014-06-05 00:00:00        2.52                 14
    ## 10 10       June   2014 2014-06-11 00:00:00        3.76                 18
    ## # … with 444 more rows, and 11 more variables: plastic_bottles <dbl>,
    ## #   polystyrene <dbl>, cigarette_butts <dbl>, glass_bottles <dbl>,
    ## #   grocery_bags <dbl>, chip_bags <dbl>, sports_balls <dbl>,
    ## #   homes_powered <dbl>, x15 <chr>, x16 <lgl>, x17 <lgl>
…
Next, combine precipitation datasets and convert month to a character
variable (the variable month.name is built into R and should be useful).

``` r
prec_df = 
  bind_rows(prec_2018,prec_2019) %>% 
  mutate(month = month.name[month]) %>% 
  relocate(year)
prec_df
```

    ## # A tibble: 24 × 3
    ##    year  month     total
    ##    <chr> <chr>     <dbl>
    ##  1 2018  January    0.94
    ##  2 2018  February   4.8 
    ##  3 2018  March      2.69
    ##  4 2018  April      4.69
    ##  5 2018  May        9.27
    ##  6 2018  June       4.77
    ##  7 2018  July      10.2 
    ##  8 2018  August     6.45
    ##  9 2018  September 10.5 
    ## 10 2018  October    2.12
    ## # … with 14 more rows
…
    ## ── Column specification ────────────────────────────────────────────────────────
    ## Delimiter: ","
    ## dbl  (8): prez_gop, gov_gop, sen_gop, rep_gop, prez_dem, gov_dem, sen_dem, r...
    ## date (1): mon

    ## 
    ## ℹ Use `spec()` to retrieve the full column specification for this data.
    ## ℹ Specify the column types or set `show_col_types = FALSE` to quiet this message.

``` r
pols_month
```

    ## # A tibble: 822 × 9
    ##    year  month     gov_gop sen_gop rep_gop gov_dem sen_dem rep_dem president
    ##    <chr> <chr>       <dbl>   <dbl>   <dbl>   <dbl>   <dbl>   <dbl> <chr>    
    ##  1 1947  January        23      51     253      23      45     198 dem      
    ##  2 1947  February       23      51     253      23      45     198 dem      
    ##  3 1947  March          23      51     253      23      45     198 dem      
    ##  4 1947  April          23      51     253      23      45     198 dem      
    ##  5 1947  May            23      51     253      23      45     198 dem      
    ##  6 1947  June           23      51     253      23      45     198 dem      
    ##  7 1947  July           23      51     253      23      45     198 dem      
    ##  8 1947  August         23      51     253      23      45     198 dem      
    ##  9 1947  September      23      51     253      23      45     198 dem      
    ## 10 1947  October        23      51     253      23      45     198 dem      
    ## # … with 812 more rows
…
    ## ── Column specification ────────────────────────────────────────────────────────
    ## Delimiter: ","
    ## chr (1): date
    ## dbl (1): close

    ## 
    ## ℹ Use `spec()` to retrieve the full column specification for this data.
    ## ℹ Specify the column types or set `show_col_types = FALSE` to quiet this message.

``` r
snp_df
```

    ## # A tibble: 787 × 3
    ##    year  month     close
    ##    <chr> <chr>     <dbl>
    ##  1 1950  January    17.0
    ##  2 1950  February   17.2
    ##  3 1950  March      17.3
    ##  4 1950  April      18.0
    ##  5 1950  May        18.8
    ##  6 1950  June       17.7
    ##  7 1950  July       17.8
    ##  8 1950  August     18.4
    ##  9 1950  September  19.5
    ## 10 1950  October    19.5
    ## # … with 777 more rows
…
    ## Rows: 68 Columns: 13

    ## ── Column specification ────────────────────────────────────────────────────────
    ## Delimiter: ","
    ## dbl (13): Year, Jan, Feb, Mar, Apr, May, Jun, Jul, Aug, Sep, Oct, Nov, Dec

    ## 
    ## ℹ Use `spec()` to retrieve the full column specification for this data.
    ## ℹ Specify the column types or set `show_col_types = FALSE` to quiet this message.

``` r
unemp_df
```

    ## # A tibble: 816 × 3
    ##    year  month     unemployment
    ##    <chr> <chr>            <dbl>
    ##  1 1948  January            3.4
    ##  2 1948  February           3.8
    ##  3 1948  March              4  
    ##  4 1948  April              3.9
    ##  5 1948  May                3.5
    ##  6 1948  June               3.6
    ##  7 1948  July               3.6
    ##  8 1948  August             3.9
    ##  9 1948  September          3.8
    ## 10 1948  October            3.7
    ## # … with 806 more rows

Join the datasets by merging snp into pols, and merging unemployment
into the result. (Merge snp\_df to pols\_month and then merge unemp\_df
into the merged data using `left_join`)

``` r
pols_snp_df = left_join(pols_month, snp_df, by = c("year", "month"))
pols_snp_unemp_df = left_join(pols_snp_df, unemp_df, by = c("year", "month"))
pols_snp_unemp_df
```

    ## # A tibble: 822 × 11
    ##    year  month   gov_gop sen_gop rep_gop gov_dem sen_dem rep_dem president close
    ##    <chr> <chr>     <dbl>   <dbl>   <dbl>   <dbl>   <dbl>   <dbl> <chr>     <dbl>
    ##  1 1947  January      23      51     253      23      45     198 dem          NA
    ##  2 1947  Februa…      23      51     253      23      45     198 dem          NA
    ##  3 1947  March        23      51     253      23      45     198 dem          NA
    ##  4 1947  April        23      51     253      23      45     198 dem          NA
    ##  5 1947  May          23      51     253      23      45     198 dem          NA
    ##  6 1947  June         23      51     253      23      45     198 dem          NA
    ##  7 1947  July         23      51     253      23      45     198 dem          NA
    ##  8 1947  August       23      51     253      23      45     198 dem          NA
    ##  9 1947  Septem…      23      51     253      23      45     198 dem          NA
    ## 10 1947  October      23      51     253      23      45     198 dem          NA
    ## # … with 812 more rows, and 1 more variable: unemployment <dbl>
…
    ## ── Column specification ────────────────────────────────────────────────────────
    ## Delimiter: ","
    ## chr (3): Gender, Ethnicity, Child's First Name
    ## dbl (3): Year of Birth, Count, Rank

    ## 
    ## ℹ Use `spec()` to retrieve the full column specification for this data.
    ## ℹ Specify the column types or set `show_col_types = FALSE` to quiet this message.

``` r
popbb_names
```

    ## # A tibble: 12,181 × 6
    ##    year_of_birth gender ethnicity      childs_first_name count  rank
    ##            <dbl> <chr>  <chr>          <chr>             <dbl> <dbl>
    ##  1          2016 female asian_and_paci Olivia              172     1
    ##  2          2016 female asian_and_paci Chloe               112     2
    ##  3          2016 female asian_and_paci Sophia              104     3
    ##  4          2016 female asian_and_paci Emily                99     4
    ##  5          2016 female asian_and_paci Emma                 99     4
    ##  6          2016 female asian_and_paci Mia                  79     5
    ##  7          2016 female asian_and_paci Charlotte            59     6
    ##  8          2016 female asian_and_paci Sarah                57     7
    ##  9          2016 female asian_and_paci Isabella             56     8
    ## 10          2016 female asian_and_paci Hannah               56     8
    ## # … with 12,171 more rows
Produce a well-structured, reader-friendly table showing the rank in
popularity of the name “Olivia” as a female baby name over time; this
should have rows for ethnicities and columns for year.

``` r
Olivia_df = 
  filter(popbb_names, childs_first_name == "Olivia") %>% 
  filter(gender == "female") %>% 
  select(year_of_birth, ethnicity, rank) %>% 
  arrange(ethnicity, year_of_birth)

Olivia_df
```

    ## # A tibble: 24 × 3
    ##    year_of_birth ethnicity       rank
    ##            <dbl> <chr>          <dbl>
    ##  1          2011 asian_and_paci     4
    ##  2          2012 asian_and_paci     3
    ##  3          2013 asian_and_paci     3
    ##  4          2014 asian_and_paci     1
    ##  5          2015 asian_and_paci     1
    ##  6          2016 asian_and_paci     1
    ##  7          2011 black_non_hisp    10
    ##  8          2012 black_non_hisp     8
    ##  9          2013 black_non_hisp     6
    ## 10          2014 black_non_hisp     8
    ## # … with 14 more rows

Produce a similar table showing the most popular name among male
children over time.

``` r
popmale_names = 
  filter(popbb_names, gender == "male", rank == "1") %>% 
  select(year_of_birth, ethnicity, childs_first_name) %>% 
  arrange(ethnicity, year_of_birth) %>% 
  rename(most_popmalebb_name = childs_first_name)

popmale_names
```

    ## # A tibble: 24 × 3
    ##    year_of_birth ethnicity      most_popmalebb_name
    ##            <dbl> <chr>          <chr>              
    ##  1          2011 asian_and_paci Ethan              
    ##  2          2012 asian_and_paci Ryan               
    ##  3          2013 asian_and_paci Jayden             
    ##  4          2014 asian_and_paci Jayden             
    ##  5          2015 asian_and_paci Jayden             
    ##  6          2016 asian_and_paci Ethan              
    ##  7          2011 black_non_hisp Jayden             
    ##  8          2012 black_non_hisp Jayden             
    ##  9          2013 black_non_hisp Ethan              
    ## 10          2014 black_non_hisp Ethan              
    ## # … with 14 more rows
…
